﻿[
	{
		"_id": "co-05",
		"_parentId": "course",
		"_type": "page",
		"_classes": "zh_cn",
		"height":"600",
		"title": "简介",
		"displayTitle": "简介",
		"pageBody": "全面考量消费流程，了解有助提升实际转化量的因素。",
		"body": "本章节介绍以人为本的多点归因模型的优势，提出课程学习目标，并提供一份“归因示例”视频。",
		"_graphic": {
			"src": "course/en/images/co_1.jpg",
			"alt": "简介"
		},
		"linkText": "查看",
		"durationLabel": "时长：",
		"duration": "5 分钟",
		"_pageLevelProgress": {
			"_isEnabled": true
		}
	},
	{
		"_id": "co-10",
		"_parentId": "course",
		"_type": "page",
		"_classes": "zh_cn",
		"height":"600",
		"title": "什么是归因",
		"displayTitle": "什么是归因",
		"pageBody": "了解哪些广告和渠道创造的价值最大。",
		"body": "本章节将讲解归因的定义及重要性，仅依靠最后点击模型的局限性，以及以人为本的成效衡量方式的优势。",
		"_graphic": {
			"src": "course/en/images/co_2.jpg",
			"alt": "管理视频"
		},
		"linkText": "查看",
		"durationLabel": "时长：",
		"duration": "2 分钟",
		"_pageLevelProgress": {
			"_isEnabled": true
		}
	},
	{
		"_id": "co-15",
		"_parentId": "course",
		"_type": "page",
		"_classes": "zh_cn",
		"height":"600",
		"title": "归因模型",
		"displayTitle": "归因模型",
		"pageBody": "归因模型决定了为整个转化路径中的广告触点进行适当归因的方式。",
		"body": "本章节将深入讲解常用的规则式模型和统计式模型。",
		"_graphic": {
			"src": "course/en/images/co_3.jpg",
			"alt": "指定版位和数据交换"
		},
		"linkText": "查看",
		"durationLabel": "时长：",
		"duration": "7 分钟",
		"_pageLevelProgress": {
			"_isEnabled": true
		}
	},
	{
		"_id": "co-20",
		"_parentId": "course",
		"_type": "page",
		"_classes": "zh_cn",
		"height":"600",
		"title": "数据源",
		"displayTitle": "数据源",
		"pageBody": "准确的多点归因有赖于两种类型的数据：输入数据和输出数据。",
		"body": "本章节将阐述准确归因所需的主要数据源类型：输入数据（浏览量、点击量和费用）和输出数据（购买量和其他类型的转化量）。",
		"_graphic": {
			"src": "course/en/images/co_4a.jpg",
			"alt": "视频互动率"
		},
		"linkText": "查看",
		"durationLabel": "时长：",
		"duration": "4 分钟",
		"_pageLevelProgress": {
			"_isEnabled": true
		}
	},
	{
		"_id": "co-25",
		"_parentId": "course",
		"_type": "page",
		"_classes": "zh_cn",
		"height":"600",
		"title": "挑战",
		"displayTitle": "挑战",
		"pageBody": "如果多点归因模型可提供更优质的成效分析数据，为什么未成为行业标准？",
		"body": "本章节将带您探索移动设备的普及和跨设备使用环境对归因的影响，以及我们如何应对向新归因标准转型所遇到的挑战。",
		"_graphic": {
			"src": "course/en/images/co_4.jpg",
			"alt": "视频互动率"
		},
		"linkText": "查看",
		"durationLabel": "时长：",
		"duration": "3 分钟",
		"_pageLevelProgress": {
			"_isEnabled": true
		}
	},
	{
		"_id": "co-30",
		"_parentId": "course",
		"_type": "page",
		"_classes": "zh_cn",
		"height":"600",
		"title": " 归因解决方案",
		"displayTitle": "归因解决方案",
		"pageBody": "我们在前面讲解了多点归因的定义与价值，本章节介绍将转化归因至适当营销触点的一些解决方案。",
		"body": "本章节将介绍 Facebook 提供的一些以人为本的归因解决方案。",
		"_graphic": {
			"src": "course/en/images/co_5.jpg",
			"alt": "视频互动率"
		},
		"linkText": "查看",
		"durationLabel": "时长：",
		"duration": "4 分钟",
		"_pageLevelProgress": {
			"_isEnabled": true
		}
	},
	{
		"_id": "co-35",
		"_parentId": "course",
		"_type": "page",
		"_classes": "zh_cn",
		"height":"600",
		"title": "实际运用成效分析",
		"displayTitle": "实际运用成效分析",
		"pageBody": "实用数据：利用归因优化媒体方案",
		"body": "使用转化路径中的数据确定哪些广告、发行商和渠道切实提升了成效，以便将媒体费用侧重分配给有效的营销方案。",
		"_graphic": {
			"src": "course/en/images/co_6.jpg",
			"alt": "视频互动率"
		},
		"linkText": "查看",
		"durationLabel": "时长：",
		"duration": "4 分钟",
		"_pageLevelProgress": {
			"_isEnabled": true
		}
    },
	{
		"_id": "co-40",
		"_parentId": "course",
		"_type": "page",
		"_classes": "zh_cn",
		"height":"600",
		"title": "总结",
		"displayTitle": "总结",
		"pageBody": "Facebook 以人为本的工具可提供明确信息，帮助营销者了解其广告是否提升了品牌在 Facebook 及其他平台上的价值。",
		"body": "本章节将归纳课程内容，并提供一些常见问题的答案。",
		"_graphic": {
			"src": "course/en/images/co_8.jpg",
			"alt": "视频互动率"
		},
		"linkText": "查看",
		"durationLabel": "时长：",
		"duration": "2 分钟",
		"_pageLevelProgress": {
			"_isEnabled": true
		}
	}

]
